…
If subject folders have multiple files, you can check if the files have
the same ID.

``` r
in_folder_match(example_paths, "^[0-9]{5}", main_dir, last_dir)
#> # A tibble: 70 x 5
#> # Groups:   main_dir [3]
#>    main_dir           last_dir files     x         match   
#>    <chr>              <chr>    <list>    <list>    <chr>   
#>  1 GNG_Anger_PsychoPy ID_30111 <chr [3]> <chr [3]> 1.000000
#>  2 GNG_Anger_PsychoPy ID_30121 <chr [3]> <chr [3]> 1.000000
#>  3 GNG_Anger_PsychoPy ID_30151 <chr [3]> <chr [3]> 1.000000
#>  4 GNG_Anger_PsychoPy ID_30171 <chr [3]> <chr [3]> 1.000000
#>  5 GNG_Anger_PsychoPy ID_30181 <chr [3]> <chr [3]> 1.000000
#>  6 GNG_Anger_PsychoPy ID_30201 <chr [3]> <chr [3]> 1.000000
#>  7 GNG_Anger_PsychoPy ID_30261 <chr [3]> <chr [3]> 1.000000
#>  8 GNG_Anger_PsychoPy ID_30271 <chr [3]> <chr [3]> 1.000000
#>  9 GNG_Anger_PsychoPy ID_30291 <chr [3]> <chr [3]> 1.000000
#> 10 GNG_Anger_PsychoPy ID_30301 <chr [3]> <chr [3]> 1.000000
#> # … with 60 more rows
```

You can count the number of files within each subject folder.

``` r
in_folder_file_count(example_paths, main_dir, last_dir)
#> # A tibble: 70 x 5
#> # Groups:   main_dir [3]
#>    main_dir           last_dir count group_min group_max
#>    <chr>              <chr>    <int>     <int>     <int>
#>  1 GNG_Anger_PsychoPy ID_30111     3         3         3
#>  2 GNG_Anger_PsychoPy ID_30121     3         3         3
#>  3 GNG_Anger_PsychoPy ID_30151     3         3         3
#>  4 GNG_Anger_PsychoPy ID_30171     3         3         3
#>  5 GNG_Anger_PsychoPy ID_30181     3         3         3
#>  6 GNG_Anger_PsychoPy ID_30201     3         3         3
#>  7 GNG_Anger_PsychoPy ID_30261     3         3         3
#>  8 GNG_Anger_PsychoPy ID_30271     3         3         3
#>  9 GNG_Anger_PsychoPy ID_30291     3         3         3
#> 10 GNG_Anger_PsychoPy ID_30301     3         3         3
#> # … with 60 more rows
```

If files have different extensions, you can check for their existence.

``` r
ext_match(example_paths, exts = c("csv", "psydat", "log"), main_dir, last_dir)
#> # A tibble: 70 x 4
#> # Groups:   main_dir [3]
#>    main_dir           last_dir ext       ext_diff
#>    <chr>              <chr>    <list>    <chr>   
#>  1 GNG_Anger_PsychoPy ID_30111 <chr [3]> "dat"   
#>  2 GNG_Anger_PsychoPy ID_30121 <chr [3]> ""      
#>  3 GNG_Anger_PsychoPy ID_30151 <chr [3]> ""      
#>  4 GNG_Anger_PsychoPy ID_30171 <chr [3]> ""      
#>  5 GNG_Anger_PsychoPy ID_30181 <chr [3]> ""      
#>  6 GNG_Anger_PsychoPy ID_30201 <chr [3]> ""      
#>  7 GNG_Anger_PsychoPy ID_30261 <chr [3]> ""      
#>  8 GNG_Anger_PsychoPy ID_30271 <chr [3]> ""      
#>  9 GNG_Anger_PsychoPy ID_30291 <chr [3]> ""      
#> 10 GNG_Anger_PsychoPy ID_30301 <chr [3]> ""      
#> # … with 60 more rows
```
…
